{"artists": {"limit": 10, "offset": 0, "next": "https://api.spotify.com/v1/search?query=the+beatles&type=artist&market=SE&offset=10&limit=10", "href": "https://api.spotify.com/v1/search?query=the+beatles&type=artist&market=SE&offset=0&limit=10", "total": 43, "previous": null, "items": [{"images": [{"height": 640, "url": "https://i.scdn.co/image/6b2a709752ef9c7aaf0d270344157f6cd2e0f1a7", "width": 640}, {"height": 320, "url": "https://i.scdn.co/image/1047bf172446f2a815a99ab0a0395099d621be51", "width": 320}, {"height": 160, "url": "https://i.scdn.co/image/0561b59a91a5e904ad2d192747715688d5f05012", "width": 160}], "external_urls": {"spotify": "https://open.spotify.com/artist/3WrFJ7ztbogyGnTHbHJFl2"}, "type": "artist", "name": "The Beatles", "followers": {"total": 13842897, "href": null}, "genres": ["british invasion", "merseybeat", "psychedelic rock", "rock"], "href": "https://api.spotify.com/v1/artists/3WrFJ7ztbogyGnTHbHJFl2", "id": "3WrFJ7ztbogyGnTHbHJFl2", "popularity": 89, "uri": "spotify:artist:3WrFJ7ztbogyGnTHbHJFl2"}, {"images": [{"height": 640, "url": "https://i.scdn.co/image/ab67616d0000b27331b92eb842d2e80d7e4a3785", "width": 640}, {"height": 300, "url": "https://i.scdn.co/image/ab67616d00001e0231b92eb842d2e80d7e4a3785", "width": 300}, {"height": 64, "url": "https://i.scdn.co/image/ab67616d0000485131b92eb842d2e80d7e4a3785", "width": 64}], "external_urls": {"spotify": "https://open.spotify.com/artist/1UarLtyjvxGiRTsfFXxtnA"}, "type": "artist", "name": "The Tape-beatles", "followers": {"total": 691, "href": null}, "genres": ["plunder"], "href": "https://api.spotify.com/v1/artists/1UarLtyjvxGiRTsfFXxtnA", "id": "1UarLtyjvxGiRTsfFXxtnA", "popularity": 4, "uri": "spotify:artist:1UarLtyjvxGiRTsfFXxtnA"}, {"images": [{"height": 640, "url": "https://i.scdn.co/image/d7f9dd9e526d590f703883ee2e3d5417502e56cf", "width": 640}, {"height": 320, "url": "https://i.scdn.co/image/373a992c4126193228a8cdfcca76366da890dd87", "width": 320}, {"height": 160, "url": "https://i.scdn.co/image/123c7b9c148112a3558a2ca76057d837b465f38d", "width": 160}], "external_urls": {"spotify": "https://open.spotify.com/artist/6ea6bBvg2oAmtRJ5aHRATP"}, "type": "artist", "name": "The Norwegian Beatles", "followers": {"total": 67, "href": null}, "genres": [], "href": "https://api.spotify.com/v1/artists/6ea6bBvg2oAmtRJ5aHRATP", "id": "6ea6bBvg2oAmtRJ5aHRATP", "popularity": 0, "uri": "spotify:artist:6ea6bBvg2oAmtRJ5aHRATP"}, {"images": [{"height": 640, "url": "https://i.scdn.co/image/ab67616d0000b273cd218fb6f6f5eceb8b85076d", "width": 640}, {"height": 300, "url": "https://i.scdn.co/image/ab67616d00001e02cd218fb6f6f5eceb8b85076d", "width": 300}, {"height": 64, "url": "https://i.scdn.co/image/ab67616d00004851cd218fb6f6f5eceb8b85076d", "width": 64}], "external_urls": {"spotify": "https://open.spotify.com/artist/23HuxUyd78GSK7Icl5khf6"}, "type": "artist", "name": "Olipa kerran The Beatles", "followers": {"total": 15, "href": null}, "genres": [], "href": "https://api.spotify.com/v1/artists/23HuxUyd78GSK7Icl5khf6", "id": "23HuxUyd78GSK7Icl5khf6", "popularity": 0, "uri": "spotify:artist:23HuxUyd78GSK7Icl5khf6"}, {"images": [{"height": 640, "url": "https://i.scdn.co/image/ab67616d0000b2732b3b907ae300d0088ba3c929", "width": 640}, {"height": 300, "url": "https://i.scdn.co/image/ab67616d00001e022b3b907ae300d0088ba3c929", "width": 300}, {"height": 64, "url": "https://i.scdn.co/image/ab67616d000048512b3b907ae300d0088ba3c929", "width": 64}], "external_urls": {"spotify": "https://open.spotify.com/artist/5qW4j3RXhL3aRytG86jLtW"}, "type": "artist", "name": "Better Than The Beatles", "followers": {"total": 189, "href": null}, "genres": [], "href": "https://api.spotify.com/v1/artists/5qW4j3RXhL3aRytG86jLtW", "id": "5qW4j3RXhL3aRytG86jLtW", "popularity": 3, "uri": "spotify:artist:5qW4j3RXhL3aRytG86jLtW"}, {"images": [], "external_urls": {"spotify": "https://open.spotify.com/artist/4PCfEqDs3CzWQu4l98pBIR"}, "type": "artist", "name": "the beatles featuring mark pearson", "followers": {"total": 13, "href": null}, "genres": [], "href": "https://api.spotify.com/v1/artists/4PCfEqDs3CzWQu4l98pBIR", "id": "4PCfEqDs3CzWQu4l98pBIR", "popularity": 0, "uri": "spotify:artist:4PCfEqDs3CzWQu4l98pBIR"}, {"images": [{"height": 640, "url": "https://i.scdn.co/image/ab67616d0000b2737ad2106ad9675d2c27080f92", "width": 640}, {"height": 300, "url": "https://i.scdn.co/image/ab67616d00001e027ad2106ad9675d2c27080f92", "width": 300}, {"height": 64, "url": "https://i.scdn.co/image/ab67616d000048517ad2106ad9675d2c27080f92", "width": 64}], "external_urls": {"spotify": "https://open.spotify.com/artist/10as56893igFHRGwpbiO6x"}, "type": "artist", "name": "GLASS ONION: SONGS OF THE BEATLES", "followers": {"total": 51, "href": null}, "genres": [], "href": "https://api.spotify.com/v1/artists/10as56893igFHRGwpbiO6x", "id": "10as56893igFHRGwpbiO6x", "popularity": 0, "uri": "spotify:artist:10as56893igFHRGwpbiO6x"}, {"images": [{"height": 640, "url": "https://i.scdn.co/image/ab67616d0000b2737d56dd99e7398deb95abeb77", "width": 640}, {"height": 300, "url": "https://i.scdn.co/image/ab67616d00001e027d56dd99e7398deb95abeb77", "width": 300}, {"height": 64, "url": "https://i.scdn.co/image/ab67616d000048517d56dd99e7398deb95abeb77", "width": 64}], "external_urls": {"spotify": "https://open.spotify.com/artist/0rhGLV687CCwGfeJYXd176"}, "type": "artist", "name": "The Beatles Tribute Band", "followers": {"total": 5172, "href": null}, "genres": [], "href": "https://api.spotify.com/v1/artists/0rhGLV687CCwGfeJYXd176", "id": "0rhGLV687CCwGfeJYXd176", "popularity": 33, "uri": "spotify:artist:0rhGLV687CCwGfeJYXd176"}, {"images": [{"height": 640, "url": "https://i.scdn.co/image/ab67616d0000b27352f419bda8fe492b8e7ad59b", "width": 640}, {"height": 300, "url": "https://i.scdn.co/image/ab67616d00001e0252f419bda8fe492b8e7ad59b", "width": 300}, {"height": 64, "url": "https://i.scdn.co/image/ab67616d0000485152f419bda8fe492b8e7ad59b", "width": 64}], "external_urls": {"spotify": "https://open.spotify.com/artist/0zRgwHorAZPeYVdTW9F5OX"}, "type": "artist", "name": "The Beatles Revival Band", "followers": {"total": 10580, "href": null}, "genres": ["tribute"], "href": "https://api.spotify.com/v1/artists/0zRgwHorAZPeYVdTW9F5OX", "id": "0zRgwHorAZPeYVdTW9F5OX", "popularity": 26, "uri": "spotify:artist:0zRgwHorAZPeYVdTW9F5OX"}, {"images": [{"height": 640, "url": "https://i.scdn.co/image/ab67616d0000b2738439bc625fdf63ed50bbb594", "width": 640}, {"height": 300, "url": "https://i.scdn.co/image/ab67616d00001e028439bc625fdf63ed50bbb594", "width": 300}, {"height": 64, "url": "https://i.scdn.co/image/ab67616d000048518439bc625fdf63ed50bbb594", "width": 64}], "external_urls": {"spotify": "https://open.spotify.com/artist/3cBV24PM5nZsXqopSHvdtS"}, "type": "artist", "name": "The Beatles Recovered Band", "followers": {"total": 15332, "href": null}, "genres": ["tribute"], "href": "https://api.spotify.com/v1/artists/3cBV24PM5nZsXqopSHvdtS", "id": "3cBV24PM5nZsXqopSHvdtS", "popularity": 35, "uri": "spotify:artist:3cBV24PM5nZsXqopSHvdtS"}]}}