{"albums": {"items": [{"album_type": "album", "external_urls": {"spotify": "https://open.spotify.com/album/0ETFjACtuP2ADo6LFhL6HN"}, "artists": [{"external_urls": {"spotify": "https://open.spotify.com/artist/3WrFJ7ztbogyGnTHbHJFl2"}, "href": "https://api.spotify.com/v1/artists/3WrFJ7ztbogyGnTHbHJFl2", "name": "The Beatles", "type": "artist", "uri": "spotify:artist:3WrFJ7ztbogyGnTHbHJFl2", "id": "3WrFJ7ztbogyGnTHbHJFl2"}], "images": [{"height": 640, "width": 640, "url": "https://i.scdn.co/image/86d7e68661e4d23921df6f921f3b34d34f54bc72"}, {"height": 300, "width": 300, "url": "https://i.scdn.co/image/af1dfd2eec8b69b50fdc5a06bd773f5e78379589"}, {"height": 64, "width": 64, "url": "https://i.scdn.co/image/3a4138036480795ef410c7ca1f44122c37dc21de"}], "total_tracks": 17, "available_markets": ["AD", "AE", "AR", "AT", "AU", "BE", "BG", "BH", "BO", "BR", "CA", "CH", "CL", "CO", "CR", "CY", "CZ", "DE", "DK", "DO", "DZ", "EC", "EE", "EG", "ES", "FI", "FR", "GB", "GR", "GT", "HK", "HN", "HU", "ID", "IE", "IL", "IN", "IS", "IT", "JO", "JP", "KW", "LB", "LI", "LT", "LU", "LV", "MA", "MC", "MT", "MX", "MY", "NI", "NL", "NO", "NZ", "OM", "PA", "PE", "PH", "PL", "PS", "PT", "PY", "QA", "RO", "SA", "SE", "SG", "SK", "SV", "TH", "TN", "TR", "TW", "US", "UY", "VN", "ZA"], "href": "https://api.spotify.com/v1/albums/0ETFjACtuP2ADo6LFhL6HN", "release_date": "1969-09-26", "release_date_precision": "day", "uri": "spotify:album:0ETFjACtuP2ADo6LFhL6HN", "name": "Abbey Road (Remastered)", "type": "album", "id": "0ETFjACtuP2ADo6LFhL6HN"}, {"album_type": "album", "external_urls": {"spotify": "https://open.spotify.com/album/5iT3F2EhjVQVrO4PKhsP8c"}, "artists": [{"external_urls": {"spotify": "https://open.spotify.com/artist/3WrFJ7ztbogyGnTHbHJFl2"}, "href": "https://api.spotify.com/v1/artists/3WrFJ7ztbogyGnTHbHJFl2", "name": "The Beatles", "type": "artist", "uri": "spotify:artist:3WrFJ7ztbogyGnTHbHJFl2", "id": "3WrFJ7ztbogyGnTHbHJFl2"}], "images": [{"height": 640, "width": 640, "url": "https://i.scdn.co/image/7a8336d0a72dd61c799edfd8e4147c8dfeadd114"}, {"height": 300, "width": 300, "url": "https://i.scdn.co/image/10fe73d775de7b05b6f7d759ab41210bed3d0ebd"}, {"height": 64, "width": 64, "url": "https://i.scdn.co/image/3697ecb1268b7622416c07ac9530c267fa61d940"}], "total_tracks": 40, "available_markets": ["AD", "AE", "AR", "AT", "AU", "BE", "BG", "BH", "BO", "BR", "CA", "CH", "CL", "CO", "CR", "CY", "CZ", "DE", "DK", "DO", "DZ", "EC", "EE", "EG", "ES", "FI", "FR", "GB", "GR", "GT", "HK", "HN", "HU", "ID", "IE", "IL", "IN", "IS", "IT", "JO", "JP", "KW", "LB", "LI", "LT", "LU", "LV", "MA", "MC", "MT", "MX", "MY", "NI", "NL", "NO", "NZ", "OM", "PA", "PE", "PH", "PL", "PS", "PT", "PY", "QA", "RO", "SA", "SE", "SG", "SK", "SV", "TH", "TN", "TR", "TW", "US", "UY", "VN", "ZA"], "href": "https://api.spotify.com/v1/albums/5iT3F2EhjVQVrO4PKhsP8c", "release_date": "2019-09-27", "release_date_precision": "day", "uri": "spotify:album:5iT3F2EhjVQVrO4PKhsP8c", "name": "Abbey Road (Super Deluxe Edition)", "type": "album", "id": "5iT3F2EhjVQVrO4PKhsP8c"}, {"album_type": "album", "external_urls": {"spotify": "https://open.spotify.com/album/0sGgHg4QRIBACnetu6z45Z"}, "artists": [{"external_urls": {"spotify": "https://open.spotify.com/artist/39yVoqm6sYFvvqF1RciUVf"}, "href": "https://api.spotify.com/v1/artists/39yVoqm6sYFvvqF1RciUVf", "name": "Carlos Rivera", "type": "artist", "uri": "spotify:artist:39yVoqm6sYFvvqF1RciUVf", "id": "39yVoqm6sYFvvqF1RciUVf"}], "images": [{"height": 640, "width": 640, "url": "https://i.scdn.co/image/ab67616d0000b273cac4e30fc6e6877242656f3e"}, {"height": 300, "width": 300, "url": "https://i.scdn.co/image/ab67616d00001e02cac4e30fc6e6877242656f3e"}, {"height": 64, "width": 64, "url": "https://i.scdn.co/image/ab67616d00004851cac4e30fc6e6877242656f3e"}], "total_tracks": 22, "available_markets": ["AD", "AE", "AR", "AT", "AU", "BE", "BG", "BH", "BO", "BR", "CA", "CH", "CL", "CO", "CR", "CY", "CZ", "DE", "DK", "DO", "DZ", "EC", "EE", "EG", "ES", "FI", "FR", "GB", "GR", "GT", "HK", "HN", "HU", "ID", "IE", "IL", "IN", "IS", "IT", "JO", "JP", "KW", "LB", "LI", "LT", "LU", "LV", "MA", "MC", "MT", "MX", "MY", "NI", "NL", "NO", "NZ", "OM", "PA", "PE", "PH", "PL", "PS", "PT", "PY", "QA", "RO", "SA", "SE", "SG", "SK", "SV", "TH", "TN", "TR", "TW", "US", "UY", "VN", "ZA"], "href": "https://api.spotify.com/v1/albums/0sGgHg4QRIBACnetu6z45Z", "release_date": "2018-09-07", "release_date_precision": "day", "uri": "spotify:album:0sGgHg4QRIBACnetu6z45Z", "name": "Guerra (+ Sessions Recorded at Abbey Road)", "type": "album", "id": "0sGgHg4QRIBACnetu6z45Z"}, {"album_type": "album", "external_urls": {"spotify": "https://open.spotify.com/album/28omFVbgxK85RM10PxJVuw"}, "artists": [{"external_urls": {"spotify": "https://open.spotify.com/artist/6YrXP3uxNWpENU4zWRUSVx"}, "href": "https://api.spotify.com/v1/artists/6YrXP3uxNWpENU4zWRUSVx", "name": "Bijelo Dugme", "type": "artist", "uri": "spotify:artist:6YrXP3uxNWpENU4zWRUSVx", "id": "6YrXP3uxNWpENU4zWRUSVx"}], "images": [{"height": 640, "width": 640, "url": "https://i.scdn.co/image/ab67616d0000b27346f07d962748caeed8aa90ef"}, {"height": 300, "width": 300, "url": "https://i.scdn.co/image/ab67616d00001e0246f07d962748caeed8aa90ef"}, {"height": 64, "width": 64, "url": "https://i.scdn.co/image/ab67616d0000485146f07d962748caeed8aa90ef"}], "total_tracks": 105, "available_markets": ["AD", "AE", "AR", "AT", "AU", "BE", "BG", "BH", "BO", "BR", "CA", "CH", "CL", "CO", "CR", "CY", "CZ", "DE", "DK", "DO", "DZ", "EC", "EE", "EG", "ES", "FI", "FR", "GB", "GR", "GT", "HK", "HN", "HU", "ID", "IE", "IL", "IN", "IS", "IT", "JO", "JP", "KW", "LB", "LI", "LT", "LU", "LV", "MA", "MC", "MT", "MX", "MY", "NI", "NL", "NO", "NZ", "OM", "PA", "PE", "PH", "PL", "PS", "PT", "PY", "QA", "RO", "SA", "SE", "SG", "SK", "SV", "TH", "TN", "TR", "TW", "US", "UY", "VN", "ZA"], "href": "https://api.spotify.com/v1/albums/28omFVbgxK85RM10PxJVuw", "release_date": "2014-01-01", "release_date_precision": "day", "uri": "spotify:album:28omFVbgxK85RM10PxJVuw", "name": "Box Set Deluxe (Abbey Road Remastered)", "type": "album", "id": "28omFVbgxK85RM10PxJVuw"}, {"album_type": "album", "external_urls": {"spotify": "https://open.spotify.com/album/00tUXbwwa6LigkT63sGXSR"}, "artists": [{"external_urls": {"spotify": "https://open.spotify.com/artist/3UmBeGyNwr4iDWi1vTxWi8"}, "href": "https://api.spotify.com/v1/artists/3UmBeGyNwr4iDWi1vTxWi8", "name": "Gerry & The Pacemakers", "type": "artist", "uri": "spotify:artist:3UmBeGyNwr4iDWi1vTxWi8", "id": "3UmBeGyNwr4iDWi1vTxWi8"}], "images": [{"height": 640, "width": 640, "url": "https://i.scdn.co/image/ab67616d0000b273651dfffbad9e0d7948a94010"}, {"height": 300, "width": 300, "url": "https://i.scdn.co/image/ab67616d00001e02651dfffbad9e0d7948a94010"}, {"height": 64, "width": 64, "url": "https://i.scdn.co/image/ab67616d00004851651dfffbad9e0d7948a94010"}], "total_tracks": 28, "available_markets": ["AD", "AE", "AR", "AT", "AU", "BE", "BG", "BH", "BO", "BR", "CA", "CH", "CL", "CO", "CR", "CY", "CZ", "DE", "DK", "DO", "DZ", "EC", "EE", "EG", "ES", "FI", "FR", "GB", "GR", "GT", "HK", "HN", "HU", "ID", "IE", "IL", "IS", "IT", "JO", "JP", "KW", "LB", "LI", "LT", "LU", "LV", "MA", "MC", "MT", "MX", "MY", "NI", "NL", "NO", "NZ", "OM", "PA", "PE", "PH", "PL", "PS", "PT", "PY", "QA", "RO", "SA", "SE", "SG", "SK", "SV", "TH", "TN", "TR", "TW", "US", "UY", "VN", "ZA"], "href": "https://api.spotify.com/v1/albums/00tUXbwwa6LigkT63sGXSR", "release_date": "1997-10-13", "release_date_precision": "day", "uri": "spotify:album:00tUXbwwa6LigkT63sGXSR", "name": "At Abbey Road", "type": "album", "id": "00tUXbwwa6LigkT63sGXSR"}, {"album_type": "album", "external_urls": {"spotify": "https://open.spotify.com/album/1BdQWouNev422Pnyrse62b"}, "artists": [{"external_urls": {"spotify": "https://open.spotify.com/artist/4RVnAU35WRWra6OZ3CbbMA"}, "href": "https://api.spotify.com/v1/artists/4RVnAU35WRWra6OZ3CbbMA", "name": "Kylie Minogue", "type": "artist", "uri": "spotify:artist:4RVnAU35WRWra6OZ3CbbMA", "id": "4RVnAU35WRWra6OZ3CbbMA"}], "images": [{"height": 640, "width": 640, "url": "https://i.scdn.co/image/ab67616d0000b27326734e941ac9f0ade71d6589"}, {"height": 300, "width": 300, "url": "https://i.scdn.co/image/ab67616d00001e0226734e941ac9f0ade71d6589"}, {"height": 64, "width": 64, "url": "https://i.scdn.co/image/ab67616d0000485126734e941ac9f0ade71d6589"}], "total_tracks": 16, "available_markets": ["AD", "AE", "AR", "AT", "BE", "BG", "BH", "BO", "BR", "CA", "CH", "CL", "CO", "CR", "CY", "CZ", "DE", "DK", "DO", "DZ", "EC", "EE", "EG", "ES", "FI", "FR", "GB", "GR", "GT", "HK", "HN", "HU", "ID", "IE", "IL", "IS", "IT", "JO", "KW", "LB", "LI", "LT", "LU", "LV", "MA", "MC", "MT", "MX", "MY", "NI", "NL", "NO", "OM", "PA", "PE", "PH", "PL", "PT", "PY", "QA", "RO", "SA", "SE", "SG", "SK", "SV", "TH", "TN", "TR", "TW", "US", "UY", "VN", "ZA"], "href": "https://api.spotify.com/v1/albums/1BdQWouNev422Pnyrse62b", "release_date": "2012-10-24", "release_date_precision": "day", "uri": "spotify:album:1BdQWouNev422Pnyrse62b", "name": "The Abbey Road Sessions", "type": "album", "id": "1BdQWouNev422Pnyrse62b"}, {"album_type": "single", "external_urls": {"spotify": "https://open.spotify.com/album/5TY5e5pUCFkAkCyFGFzn3P"}, "artists": [{"external_urls": {"spotify": "https://open.spotify.com/artist/6ydoSd3N2mwgwBHtF6K7eX"}, "href": "https://api.spotify.com/v1/artists/6ydoSd3N2mwgwBHtF6K7eX", "name": "Calum Scott", "type": "artist", "uri": "spotify:artist:6ydoSd3N2mwgwBHtF6K7eX", "id": "6ydoSd3N2mwgwBHtF6K7eX"}], "images": [{"height": 640, "width": 640, "url": "https://i.scdn.co/image/3befebbb582929e00fd5e7813a8718e1f8848cee"}, {"height": 300, "width": 300, "url": "https://i.scdn.co/image/198da6e2449ad0a3ef2717da001d7eb9056ad9e1"}, {"height": 64, "width": 64, "url": "https://i.scdn.co/image/74c515c7bc48c6351dc63c900d69b6f285ca2af2"}], "total_tracks": 1, "available_markets": ["AD", "AE", "AR", "AT", "AU", "BE", "BG", "BH", "BO", "BR", "CA", "CH", "CL", "CO", "CR", "CY", "CZ", "DE", "DK", "DO", "DZ", "EC", "EE", "EG", "ES", "FI", "FR", "GB", "GR", "GT", "HK", "HN", "HU", "ID", "IE", "IL", "IN", "IS", "IT", "JO", "JP", "KW", "LB", "LI", "LT", "LU", "LV", "MA", "MC", "MT", "MX", "MY", "NI", "NL", "NO", "NZ", "OM", "PA", "PE", "PH", "PL", "PS", "PT", "PY", "QA", "RO", "SA", "SE", "SG", "SK", "SV", "TH", "TN", "TR", "TW", "US", "UY", "VN", "ZA"], "href": "https://api.spotify.com/v1/albums/5TY5e5pUCFkAkCyFGFzn3P", "release_date": "2018-02-23", "release_date_precision": "day", "uri": "spotify:album:5TY5e5pUCFkAkCyFGFzn3P", "name": "You Are The Reason (Acoustic, 1 Mic 1 Take/Live From Abbey Road Studios)", "type": "album", "id": "5TY5e5pUCFkAkCyFGFzn3P"}, {"album_type": "album", "external_urls": {"spotify": "https://open.spotify.com/album/3i47d2tkJNfJc8F7mBGr6c"}, "artists": [{"external_urls": {"spotify": "https://open.spotify.com/artist/6URFeH3cWWv6tj2RazL9IP"}, "href": "https://api.spotify.com/v1/artists/6URFeH3cWWv6tj2RazL9IP", "name": "Bob Baldwin", "type": "artist", "uri": "spotify:artist:6URFeH3cWWv6tj2RazL9IP", "id": "6URFeH3cWWv6tj2RazL9IP"}], "images": [{"height": 640, "width": 640, "url": "https://i.scdn.co/image/ab67616d0000b27303db36719ce3c1afc82bc633"}, {"height": 300, "width": 300, "url": "https://i.scdn.co/image/ab67616d00001e0203db36719ce3c1afc82bc633"}, {"height": 64, "width": 64, "url": "https://i.scdn.co/image/ab67616d0000485103db36719ce3c1afc82bc633"}], "total_tracks": 12, "available_markets": ["AD", "AE", "AR", "AT", "AU", "BE", "BG", "BH", "BO", "BR", "CA", "CH", "CL", "CO", "CR", "CY", "CZ", "DE", "DK", "DO", "DZ", "EC", "EE", "EG", "ES", "FI", "FR", "GB", "GR", "GT", "HK", "HN", "HU", "ID", "IE", "IL", "IN", "IS", "IT", "JO", "JP", "KW", "LB", "LI", "LT", "LU", "LV", "MA", "MC", "MT", "MX", "MY", "NI", "NL", "NO", "NZ", "OM", "PA", "PE", "PH", "PL", "PS", "PT", "PY", "QA", "RO", "SA", "SE", "SG", "SK", "SV", "TH", "TN", "TR", "TW", "US", "UY", "VN", "ZA"], "href": "https://api.spotify.com/v1/albums/3i47d2tkJNfJc8F7mBGr6c", "release_date": "2018-09-21", "release_date_precision": "day", "uri": "spotify:album:3i47d2tkJNfJc8F7mBGr6c", "name": "Bob Baldwin Presents: Abbey Road and The Beatles", "type": "album", "id": "3i47d2tkJNfJc8F7mBGr6c"}, {"album_type": "compilation", "external_urls": {"spotify": "https://open.spotify.com/album/78asX5x3ABHoNNLAcQwuI2"}, "artists": [{"external_urls": {"spotify": "https://open.spotify.com/artist/6waa8mKu91GjzD4NlONlNJ"}, "href": "https://api.spotify.com/v1/artists/6waa8mKu91GjzD4NlONlNJ", "name": "The Hollies", "type": "artist", "uri": "spotify:artist:6waa8mKu91GjzD4NlONlNJ", "id": "6waa8mKu91GjzD4NlONlNJ"}], "images": [{"height": 640, "width": 640, "url": "https://i.scdn.co/image/ab67616d0000b2736908ff2a6b4018580748989f"}, {"height": 300, "width": 300, "url": "https://i.scdn.co/image/ab67616d00001e026908ff2a6b4018580748989f"}, {"height": 64, "width": 64, "url": "https://i.scdn.co/image/ab67616d000048516908ff2a6b4018580748989f"}], "total_tracks": 24, "available_markets": ["AD", "AE", "AR", "AT", "AU", "BE", "BG", "BH", "BO", "BR", "CA", "CH", "CL", "CO", "CR", "CY", "CZ", "DE", "DK", "DO", "DZ", "EC", "EE", "EG", "ES", "FI", "FR", "GB", "GR", "GT", "HK", "HN", "HU", "ID", "IE", "IL", "IS", "IT", "JO", "JP", "KW", "LB", "LI", "LT", "LU", "LV", "MA", "MC", "MT", "MX", "MY", "NI", "NL", "NO", "NZ", "OM", "PA", "PE", "PH", "PL", "PS", "PT", "PY", "QA", "RO", "SA", "SE", "SG", "SK", "SV", "TH", "TN", "TR", "TW", "US", "UY", "VN", "ZA"], "href": "https://api.spotify.com/v1/albums/78asX5x3ABHoNNLAcQwuI2", "release_date": "1998-02-23", "release_date_precision": "day", "uri": "spotify:album:78asX5x3ABHoNNLAcQwuI2", "name": "The Hollies At Abbey Road 1966-1970", "type": "album", "id": "78asX5x3ABHoNNLAcQwuI2"}, {"album_type": "single", "external_urls": {"spotify": "https://open.spotify.com/album/3mH8f6BWGWZOVzteyY1A7q"}, "artists": [{"external_urls": {"spotify": "https://open.spotify.com/artist/1HBjj22wzbscIZ9sEb5dyf"}, "href": "https://api.spotify.com/v1/artists/1HBjj22wzbscIZ9sEb5dyf", "name": "Jonas Blue", "type": "artist", "uri": "spotify:artist:1HBjj22wzbscIZ9sEb5dyf", "id": "1HBjj22wzbscIZ9sEb5dyf"}], "images": [{"height": 640, "width": 640, "url": "https://i.scdn.co/image/cdbc8d87a7a893410cd576c8d35dfef388e1e90b"}, {"height": 300, "width": 300, "url": "https://i.scdn.co/image/2a8b16cb2a93e0dc3db0501d47c34a02fdcbc033"}, {"height": 64, "width": 64, "url": "https://i.scdn.co/image/0c3d9e22b4f53b1eb84af4028dcb3730f4bea2c8"}], "total_tracks": 1, "available_markets": ["AD", "AE", "AR", "AT", "AU", "BE", "BG", "BH", "BO", "BR", "CA", "CH", "CL", "CO", "CR", "CY", "CZ", "DE", "DK", "DO", "DZ", "EC", "EE", "EG", "ES", "FI", "FR", "GB", "GR", "GT", "HK", "HN", "HU", "ID", "IE", "IL", "IN", "IS", "IT", "JO", "JP", "KW", "LB", "LI", "LT", "LU", "LV", "MA", "MC", "MT", "MX", "MY", "NI", "NL", "NO", "NZ", "OM", "PA", "PE", "PH", "PL", "PS", "PT", "PY", "QA", "RO", "SA", "SE", "SG", "SK", "SV", "TH", "TN", "TR", "TW", "US", "UY", "VN", "ZA"], "href": "https://api.spotify.com/v1/albums/3mH8f6BWGWZOVzteyY1A7q", "release_date": "2016-12-09", "release_date_precision": "day", "uri": "spotify:album:3mH8f6BWGWZOVzteyY1A7q", "name": "By Your Side (Abbey Road Live Version)", "type": "album", "id": "3mH8f6BWGWZOVzteyY1A7q"}], "limit": 10, "total": 180, "previous": null, "offset": 0, "href": "https://api.spotify.com/v1/search?query=abbey+road&type=album&market=SE&offset=0&limit=10", "next": "https://api.spotify.com/v1/search?query=abbey+road&type=album&market=SE&offset=10&limit=10"}}