{"albums": {"items": [{"album_type": "album", "external_urls": {"spotify": "https://open.spotify.com/album/3I9Z1nDCL4E0cP62flcbI5"}, "artists": [{"external_urls": {"spotify": "https://open.spotify.com/artist/3qm84nBOXUEQ2vnTfUTTFC"}, "href": "https://api.spotify.com/v1/artists/3qm84nBOXUEQ2vnTfUTTFC", "name": "Guns N' Roses", "type": "artist", "uri": "spotify:artist:3qm84nBOXUEQ2vnTfUTTFC", "id": "3qm84nBOXUEQ2vnTfUTTFC"}], "images": [{"height": 635, "width": 640, "url": "https://i.scdn.co/image/9124aa5141344ef718b000b81e74e02fe06835f0"}, {"height": 297, "width": 300, "url": "https://i.scdn.co/image/00062ef6944fedc6970e10da3f0bff12ad9ba839"}, {"height": 63, "width": 64, "url": "https://i.scdn.co/image/ecd277c82f0a4dd0fdffad6a110dce2fd26880b7"}], "total_tracks": 12, "available_markets": ["AD", "AE", "AR", "AT", "AU", "BE", "BG", "BH", "BO", "BR", "CH", "CL", "CO", "CR", "CY", "CZ", "DE", "DK", "DO", "DZ", "EC", "EE", "EG", "ES", "FI", "FR", "GB", "GR", "GT", "HK", "HN", "HU", "ID", "IE", "IL", "IN", "IS", "IT", "JO", "JP", "KW", "LB", "LI", "LT", "LU", "LV", "MA", "MC", "MT", "MX", "MY", "NI", "NL", "NO", "NZ", "OM", "PA", "PE", "PH", "PL", "PS", "PT", "PY", "QA", "RO", "SA", "SE", "SG", "SK", "SV", "TH", "TN", "TR", "TW", "UY", "VN", "ZA"], "href": "https://api.spotify.com/v1/albums/3I9Z1nDCL4E0cP62flcbI5", "release_date": "1987-01-01", "release_date_precision": "day", "uri": "spotify:album:3I9Z1nDCL4E0cP62flcbI5", "name": "Appetite For Destruction", "type": "album", "id": "3I9Z1nDCL4E0cP62flcbI5"}, {"album_type": "album", "external_urls": {"spotify": "https://open.spotify.com/album/3edmYBHOTxfz8NxJE1QmTP"}, "artists": [{"external_urls": {"spotify": "https://open.spotify.com/artist/3qm84nBOXUEQ2vnTfUTTFC"}, "href": "https://api.spotify.com/v1/artists/3qm84nBOXUEQ2vnTfUTTFC", "name": "Guns N' Roses", "type": "artist", "uri": "spotify:artist:3qm84nBOXUEQ2vnTfUTTFC", "id": "3qm84nBOXUEQ2vnTfUTTFC"}], "images": [{"height": 640, "width": 640, "url": "https://i.scdn.co/image/d027e1005ce2a52d032bdd6fadcb8702dca5abd6"}, {"height": 300, "width": 300, "url": "https://i.scdn.co/image/8851453b6177f1f7e41392e97690d2f015f0317d"}, {"height": 64, "width": 64, "url": "https://i.scdn.co/image/7eca1a23a6449d32dda98989bc7286806982aa6f"}], "total_tracks": 51, "available_markets": ["AD", "AE", "AR", "AT", "AU", "BE", "BG", "BH", "BO", "BR", "CA", "CH", "CL", "CO", "CR", "CY", "CZ", "DE", "DK", "DO", "DZ", "EC", "EE", "EG", "ES", "FI", "FR", "GB", "GR", "GT", "HK", "HN", "HU", "ID", "IE", "IL", "IN", "IS", "IT", "JO", "JP", "KW", "LB", "LI", "LT", "LU", "LV", "MA", "MC", "MT", "MX", "MY", "NI", "NL", "NO", "NZ", "OM", "PA", "PE", "PH", "PL", "PS", "PT", "PY", "QA", "RO", "SA", "SE", "SG", "SK", "SV", "TH", "TN", "TR", "TW", "US", "UY", "VN", "ZA"], "href": "https://api.spotify.com/v1/albums/3edmYBHOTxfz8NxJE1QmTP", "release_date": "1987-07-29", "release_date_precision": "day", "uri": "spotify:album:3edmYBHOTxfz8NxJE1QmTP", "name": "Appetite For Destruction (Super Deluxe Edition)", "type": "album", "id": "3edmYBHOTxfz8NxJE1QmTP"}, {"album_type": "album", "external_urls": {"spotify": "https://open.spotify.com/album/28yHV3Gdg30AiB8h8em1eW"}, "artists": [{"external_urls": {"spotify": "https://open.spotify.com/artist/3qm84nBOXUEQ2vnTfUTTFC"}, "href": "https://api.spotify.com/v1/artists/3qm84nBOXUEQ2vnTfUTTFC", "name": "Guns N' Roses", "type": "artist", "uri": "spotify:artist:3qm84nBOXUEQ2vnTfUTTFC", "id": "3qm84nBOXUEQ2vnTfUTTFC"}], "images": [{"height": 640, "width": 640, "url": "https://i.scdn.co/image/5b51c72ba933b9ca84d7588335089be5dbfd9517"}, {"height": 300, "width": 300, "url": "https://i.scdn.co/image/02416c62a31243c26004404d676eb287ff625a0b"}, {"height": 64, "width": 64, "url": "https://i.scdn.co/image/33498de630a6ba4d3e70ba0a418e00f898526def"}], "total_tracks": 12, "available_markets": ["AD", "AE", "AR", "AT", "AU", "BE", "BG", "BH", "BO", "BR", "CA", "CH", "CL", "CO", "CR", "CY", "CZ", "DE", "DK", "DO", "DZ", "EC", "EE", "EG", "ES", "FI", "FR", "GB", "GR", "GT", "HK", "HN", "HU", "ID", "IE", "IL", "IN", "IS", "IT", "JO", "JP", "KW", "LB", "LI", "LT", "LU", "LV", "MA", "MC", "MT", "MX", "MY", "NI", "NL", "NO", "NZ", "OM", "PA", "PE", "PH", "PL", "PS", "PT", "PY", "QA", "RO", "SA", "SE", "SG", "SK", "SV", "TH", "TN", "TR", "TW", "US", "UY", "VN", "ZA"], "href": "https://api.spotify.com/v1/albums/28yHV3Gdg30AiB8h8em1eW", "release_date": "1987-07-21", "release_date_precision": "day", "uri": "spotify:album:28yHV3Gdg30AiB8h8em1eW", "name": "Appetite For Destruction", "type": "album", "id": "28yHV3Gdg30AiB8h8em1eW"}, {"album_type": "single", "external_urls": {"spotify": "https://open.spotify.com/album/0u43XKa5GE9e9l75igl5d2"}, "artists": [{"external_urls": {"spotify": "https://open.spotify.com/artist/18KIg6ST1nUjVUvAlEB6ak"}, "href": "https://api.spotify.com/v1/artists/18KIg6ST1nUjVUvAlEB6ak", "name": "Vo Williams", "type": "artist", "uri": "spotify:artist:18KIg6ST1nUjVUvAlEB6ak", "id": "18KIg6ST1nUjVUvAlEB6ak"}], "images": [{"height": 640, "width": 640, "url": "https://i.scdn.co/image/ab67616d0000b273dd76ab42e1a09bf162055106"}, {"height": 300, "width": 300, "url": "https://i.scdn.co/image/ab67616d00001e02dd76ab42e1a09bf162055106"}, {"height": 64, "width": 64, "url": "https://i.scdn.co/image/ab67616d00004851dd76ab42e1a09bf162055106"}], "total_tracks": 1, "available_markets": ["AD", "AE", "AR", "AT", "AU", "BE", "BG", "BH", "BO", "BR", "CA", "CH", "CL", "CO", "CR", "CY", "CZ", "DE", "DK", "DO", "DZ", "EC", "EE", "EG", "ES", "FI", "FR", "GB", "GR", "GT", "HK", "HN", "HU", "ID", "IE", "IL", "IN", "IS", "IT", "JO", "JP", "KW", "LB", "LI", "LT", "LU", "LV", "MA", "MC", "MT", "MX", "MY", "NI", "NL", "NO", "NZ", "OM", "PA", "PE", "PH", "PL", "PS", "PT", "PY", "QA", "RO", "SA", "SE", "SG", "SK", "SV", "TH", "TN", "TR", "TW", "US", "UY", "VN", "ZA"], "href": "https://api.spotify.com/v1/albums/0u43XKa5GE9e9l75igl5d2", "release_date": "2018-11-19", "release_date_precision": "day", "uri": "spotify:album:0u43XKa5GE9e9l75igl5d2", "name": "Appetite for Destruction", "type": "album", "id": "0u43XKa5GE9e9l75igl5d2"}, {"album_type": "album", "external_urls": {"spotify": "https://open.spotify.com/album/7n7LLIdqAyfRgEmj1p8eZp"}, "artists": [{"external_urls": {"spotify": "https://open.spotify.com/artist/4K9tGGFyw0Rab8akZVBMQR"}, "href": "https://api.spotify.com/v1/artists/4K9tGGFyw0Rab8akZVBMQR", "name": "Funkst\u00f6rung", "type": "artist", "uri": "spotify:artist:4K9tGGFyw0Rab8akZVBMQR", "id": "4K9tGGFyw0Rab8akZVBMQR"}], "images": [{"height": 640, "width": 640, "url": "https://i.scdn.co/image/ab67616d0000b273ad5aa43db9f210ac907220bd"}, {"height": 300, "width": 300, "url": "https://i.scdn.co/image/ab67616d00001e02ad5aa43db9f210ac907220bd"}, {"height": 64, "width": 64, "url": "https://i.scdn.co/image/ab67616d00004851ad5aa43db9f210ac907220bd"}], "total_tracks": 11, "available_markets": ["AD", "AE", "AR", "AT", "AU", "BE", "BG", "BH", "BO", "BR", "CA", "CH", "CL", "CO", "CR", "CY", "CZ", "DE", "DK", "DO", "DZ", "EC", "EE", "EG", "ES", "FI", "FR", "GB", "GR", "GT", "HK", "HN", "HU", "ID", "IE", "IL", "IN", "IS", "IT", "JO", "JP", "KW", "LB", "LI", "LT", "LU", "LV", "MA", "MC", "MT", "MX", "MY", "NI", "NL", "NO", "NZ", "OM", "PA", "PE", "PH", "PL", "PS", "PT", "PY", "QA", "RO", "SA", "SE", "SG", "SK", "SV", "TH", "TN", "TR", "TW", "US", "UY", "VN", "ZA"], "href": "https://api.spotify.com/v1/albums/7n7LLIdqAyfRgEmj1p8eZp", "release_date": "2000-04-25", "release_date_precision": "day", "uri": "spotify:album:7n7LLIdqAyfRgEmj1p8eZp", "name": "Appetite for Destruction", "type": "album", "id": "7n7LLIdqAyfRgEmj1p8eZp"}, {"album_type": "album", "external_urls": {"spotify": "https://open.spotify.com/album/37DLrcxgukhAwamkhhT8Ro"}, "artists": [{"external_urls": {"spotify": "https://open.spotify.com/artist/5zmRtmoWslBZH7Hzf3XDCk"}, "href": "https://api.spotify.com/v1/artists/5zmRtmoWslBZH7Hzf3XDCk", "name": "K.B", "type": "artist", "uri": "spotify:artist:5zmRtmoWslBZH7Hzf3XDCk", "id": "5zmRtmoWslBZH7Hzf3XDCk"}], "images": [{"height": 640, "width": 640, "url": "https://i.scdn.co/image/ab67616d0000b273669e9d1bc69e0b974b41e10d"}, {"height": 300, "width": 300, "url": "https://i.scdn.co/image/ab67616d00001e02669e9d1bc69e0b974b41e10d"}, {"height": 64, "width": 64, "url": "https://i.scdn.co/image/ab67616d00004851669e9d1bc69e0b974b41e10d"}], "total_tracks": 21, "available_markets": ["AD", "AE", "AR", "AT", "AU", "BE", "BG", "BH", "BO", "BR", "CA", "CH", "CL", "CO", "CR", "CY", "CZ", "DE", "DK", "DO", "DZ", "EC", "EE", "EG", "ES", "FI", "FR", "GB", "GR", "GT", "HK", "HN", "HU", "ID", "IE", "IL", "IN", "IS", "IT", "JO", "JP", "KW", "LB", "LI", "LT", "LU", "LV", "MA", "MC", "MT", "MX", "MY", "NI", "NL", "NO", "NZ", "OM", "PA", "PE", "PH", "PL", "PS", "PT", "PY", "QA", "RO", "SA", "SE", "SG", "SK", "SV", "TH", "TN", "TR", "TW", "US", "UY", "VN", "ZA"], "href": "https://api.spotify.com/v1/albums/37DLrcxgukhAwamkhhT8Ro", "release_date": "2006-12-05", "release_date_precision": "day", "uri": "spotify:album:37DLrcxgukhAwamkhhT8Ro", "name": "Appetite For Destruction", "type": "album", "id": "37DLrcxgukhAwamkhhT8Ro"}, {"album_type": "album", "external_urls": {"spotify": "https://open.spotify.com/album/48m60UUqdw0YD89cCAAUKc"}, "artists": [{"external_urls": {"spotify": "https://open.spotify.com/artist/2L3yy3t9CTJMFVMQ79pwGQ"}, "href": "https://api.spotify.com/v1/artists/2L3yy3t9CTJMFVMQ79pwGQ", "name": "Ruby Isle", "type": "artist", "uri": "spotify:artist:2L3yy3t9CTJMFVMQ79pwGQ", "id": "2L3yy3t9CTJMFVMQ79pwGQ"}], "images": [{"height": 640, "width": 640, "url": "https://i.scdn.co/image/ab67616d0000b273117aef01699d07db956574e3"}, {"height": 300, "width": 300, "url": "https://i.scdn.co/image/ab67616d00001e02117aef01699d07db956574e3"}, {"height": 64, "width": 64, "url": "https://i.scdn.co/image/ab67616d00004851117aef01699d07db956574e3"}], "total_tracks": 12, "available_markets": ["AD", "AE", "AR", "AT", "AU", "BE", "BG", "BH", "BO", "BR", "CA", "CH", "CL", "CO", "CR", "CY", "CZ", "DE", "DK", "DO", "DZ", "EC", "EE", "EG", "ES", "FI", "FR", "GB", "GR", "GT", "HK", "HN", "HU", "ID", "IE", "IL", "IN", "IS", "IT", "JO", "KW", "LB", "LI", "LT", "LU", "LV", "MA", "MC", "MT", "MX", "MY", "NI", "NL", "NO", "NZ", "OM", "PA", "PE", "PH", "PL", "PS", "PT", "PY", "QA", "RO", "SA", "SE", "SG", "SK", "SV", "TH", "TN", "TR", "TW", "US", "UY", "VN", "ZA"], "href": "https://api.spotify.com/v1/albums/48m60UUqdw0YD89cCAAUKc", "release_date": "1987", "release_date_precision": "year", "uri": "spotify:album:48m60UUqdw0YD89cCAAUKc", "name": "Appetite for Destruction", "type": "album", "id": "48m60UUqdw0YD89cCAAUKc"}, {"album_type": "single", "external_urls": {"spotify": "https://open.spotify.com/album/3ividRVdrHjtx9iAebVAd4"}, "artists": [{"external_urls": {"spotify": "https://open.spotify.com/artist/47nLIsYRDFGXvO3UQVZuCl"}, "href": "https://api.spotify.com/v1/artists/47nLIsYRDFGXvO3UQVZuCl", "name": "CoaastGxd", "type": "artist", "uri": "spotify:artist:47nLIsYRDFGXvO3UQVZuCl", "id": "47nLIsYRDFGXvO3UQVZuCl"}], "images": [{"height": 640, "width": 640, "url": "https://i.scdn.co/image/ab67616d0000b273d411c9ba56320a4594a97e53"}, {"height": 300, "width": 300, "url": "https://i.scdn.co/image/ab67616d00001e02d411c9ba56320a4594a97e53"}, {"height": 64, "width": 64, "url": "https://i.scdn.co/image/ab67616d00004851d411c9ba56320a4594a97e53"}], "total_tracks": 1, "available_markets": ["AD", "AE", "AR", "AT", "AU", "BE", "BG", "BH", "BO", "BR", "CA", "CH", "CL", "CO", "CR", "CY", "CZ", "DE", "DK", "DO", "DZ", "EC", "EE", "EG", "ES", "FI", "FR", "GB", "GR", "GT", "HK", "HN", "HU", "ID", "IE", "IL", "IN", "IS", "IT", "JO", "JP", "KW", "LB", "LI", "LT", "LU", "LV", "MA", "MC", "MT", "MX", "MY", "NI", "NL", "NO", "NZ", "OM", "PA", "PE", "PH", "PL", "PS", "PT", "PY", "QA", "RO", "SA", "SE", "SG", "SK", "SV", "TH", "TN", "TR", "TW", "US", "UY", "VN", "ZA"], "href": "https://api.spotify.com/v1/albums/3ividRVdrHjtx9iAebVAd4", "release_date": "2019-01-20", "release_date_precision": "day", "uri": "spotify:album:3ividRVdrHjtx9iAebVAd4", "name": "Appetite for Self-Destruction", "type": "album", "id": "3ividRVdrHjtx9iAebVAd4"}, {"album_type": "album", "external_urls": {"spotify": "https://open.spotify.com/album/6x1e18uyoOH1OxG0O2agR0"}, "artists": [{"external_urls": {"spotify": "https://open.spotify.com/artist/4H25GiddqxqlNR2WJOErMv"}, "href": "https://api.spotify.com/v1/artists/4H25GiddqxqlNR2WJOErMv", "name": "Tackleberry", "type": "artist", "uri": "spotify:artist:4H25GiddqxqlNR2WJOErMv", "id": "4H25GiddqxqlNR2WJOErMv"}], "images": [{"height": 640, "width": 640, "url": "https://i.scdn.co/image/ab67616d0000b273d8f74fbf1ab878613cfb1dc3"}, {"height": 300, "width": 300, "url": "https://i.scdn.co/image/ab67616d00001e02d8f74fbf1ab878613cfb1dc3"}, {"height": 64, "width": 64, "url": "https://i.scdn.co/image/ab67616d00004851d8f74fbf1ab878613cfb1dc3"}], "total_tracks": 8, "available_markets": ["AD", "AE", "AR", "AT", "AU", "BE", "BG", "BH", "BO", "BR", "CA", "CH", "CL", "CO", "CR", "CY", "CZ", "DE", "DK", "DO", "DZ", "EC", "EE", "EG", "ES", "FI", "FR", "GB", "GR", "GT", "HK", "HN", "HU", "ID", "IE", "IL", "IN", "IS", "IT", "JO", "JP", "KW", "LB", "LI", "LT", "LU", "LV", "MA", "MC", "MT", "MX", "MY", "NI", "NL", "NO", "NZ", "OM", "PA", "PE", "PH", "PL", "PS", "PT", "PY", "QA", "RO", "SA", "SE", "SG", "SK", "SV", "TH", "TN", "TR", "TW", "US", "UY", "VN", "ZA"], "href": "https://api.spotify.com/v1/albums/6x1e18uyoOH1OxG0O2agR0", "release_date": "2009-04-17", "release_date_precision": "day", "uri": "spotify:album:6x1e18uyoOH1OxG0O2agR0", "name": "Reinventing Appetite For Destruction", "type": "album", "id": "6x1e18uyoOH1OxG0O2agR0"}, {"album_type": "album", "external_urls": {"spotify": "https://open.spotify.com/album/2K6JFZHOStIhmoEYfCeEIO"}, "artists": [{"external_urls": {"spotify": "https://open.spotify.com/artist/2L3yy3t9CTJMFVMQ79pwGQ"}, "href": "https://api.spotify.com/v1/artists/2L3yy3t9CTJMFVMQ79pwGQ", "name": "Ruby Isle", "type": "artist", "uri": "spotify:artist:2L3yy3t9CTJMFVMQ79pwGQ", "id": "2L3yy3t9CTJMFVMQ79pwGQ"}], "images": [{"height": 640, "width": 640, "url": "https://i.scdn.co/image/ab67616d0000b273937cb94bcfae5ec14dbfe2a5"}, {"height": 300, "width": 300, "url": "https://i.scdn.co/image/ab67616d00001e02937cb94bcfae5ec14dbfe2a5"}, {"height": 64, "width": 64, "url": "https://i.scdn.co/image/ab67616d00004851937cb94bcfae5ec14dbfe2a5"}], "total_tracks": 13, "available_markets": ["AD", "AE", "AR", "AT", "AU", "BE", "BG", "BH", "BO", "BR", "CA", "CH", "CL", "CO", "CR", "CY", "CZ", "DE", "DK", "DO", "DZ", "EC", "EE", "EG", "ES", "FI", "FR", "GB", "GR", "GT", "HK", "HN", "HU", "ID", "IE", "IL", "IN", "IS", "IT", "JO", "JP", "KW", "LB", "LI", "LT", "LU", "LV", "MA", "MC", "MT", "MX", "MY", "NI", "NL", "NO", "NZ", "OM", "PA", "PE", "PH", "PL", "PS", "PT", "PY", "QA", "RO", "SA", "SE", "SG", "SK", "SV", "TH", "TN", "TR", "TW", "US", "UY", "VN", "ZA"], "href": "https://api.spotify.com/v1/albums/2K6JFZHOStIhmoEYfCeEIO", "release_date": "2016-04-12", "release_date_precision": "day", "uri": "spotify:album:2K6JFZHOStIhmoEYfCeEIO", "name": "Appetite for Destruction - Gold Edition", "type": "album", "id": "2K6JFZHOStIhmoEYfCeEIO"}], "limit": 10, "total": 12, "previous": null, "offset": 0, "href": "https://api.spotify.com/v1/search?query=appetite+for+destruction&type=album&market=SE&offset=0&limit=10", "next": "https://api.spotify.com/v1/search?query=appetite+for+destruction&type=album&market=SE&offset=10&limit=10"}}