{"artists": {"items": [{"followers": {"total": 20525514, "href": null}, "popularity": 90, "name": "Queen", "genres": ["glam rock", "rock"], "id": "1dfeR4HaWDbWqFHLkxsg1d", "type": "artist", "uri": "spotify:artist:1dfeR4HaWDbWqFHLkxsg1d", "external_urls": {"spotify": "https://open.spotify.com/artist/1dfeR4HaWDbWqFHLkxsg1d"}, "images": [{"width": 999, "height": 806, "url": "https://i.scdn.co/image/b040846ceba13c3e9c125d68389491094e7f2982"}, {"width": 640, "height": 516, "url": "https://i.scdn.co/image/af2b8e57f6d7b5d43a616bd1e27ba552cd8bfd42"}, {"width": 200, "height": 161, "url": "https://i.scdn.co/image/c06971e9ff81696699b829484e3be165f4e64368"}, {"width": 64, "height": 52, "url": "https://i.scdn.co/image/6dd0ffd270903d1884edf9058c49f58b03db893d"}], "href": "https://api.spotify.com/v1/artists/1dfeR4HaWDbWqFHLkxsg1d"}, {"followers": {"total": 20505825, "href": null}, "popularity": 88, "name": "Beyonc\u00e9", "genres": ["dance pop", "pop", "r&b"], "id": "6vWDO969PvNqNYHIOW5v0m", "type": "artist", "uri": "spotify:artist:6vWDO969PvNqNYHIOW5v0m", "external_urls": {"spotify": "https://open.spotify.com/artist/6vWDO969PvNqNYHIOW5v0m"}, "images": [{"width": 640, "height": 640, "url": "https://i.scdn.co/image/9fef2047e4e3f05031807d5fa9e121b7862ba259"}, {"width": 320, "height": 320, "url": "https://i.scdn.co/image/7390b133e724a0108a5553315b7cc51aafdb5f95"}, {"width": 160, "height": 160, "url": "https://i.scdn.co/image/7ef5dfbbe32bddad1d7045054673570b7eaef774"}], "href": "https://api.spotify.com/v1/artists/6vWDO969PvNqNYHIOW5v0m"}, {"followers": {"total": 11495, "href": null}, "popularity": 64, "name": "Queen Pen", "genres": ["hip pop", "lgbtq+ hip hop"], "id": "0VbIlorLz3I5SEtIsc5vAr", "type": "artist", "uri": "spotify:artist:0VbIlorLz3I5SEtIsc5vAr", "external_urls": {"spotify": "https://open.spotify.com/artist/0VbIlorLz3I5SEtIsc5vAr"}, "images": [{"width": 1000, "height": 997, "url": "https://i.scdn.co/image/ff4eabfc6691a25a8b43782e80a0ba0781f09a68"}, {"width": 640, "height": 638, "url": "https://i.scdn.co/image/0a079ee27bb8e170fc2794fcdcffb0524b170d55"}, {"width": 200, "height": 199, "url": "https://i.scdn.co/image/e987de87ded3c2d69167fb8ac4b09e11cdea2fa1"}, {"width": 64, "height": 64, "url": "https://i.scdn.co/image/1cfb64008f4c1308fac4381b262a153d5c944ee3"}], "href": "https://api.spotify.com/v1/artists/0VbIlorLz3I5SEtIsc5vAr"}, {"followers": {"total": 1130064, "href": null}, "popularity": 68, "name": "Queen Naija", "genres": ["deep pop r&b", "pop", "r&b"], "id": "3nViOFa3kZW8OMSNOzwr98", "type": "artist", "uri": "spotify:artist:3nViOFa3kZW8OMSNOzwr98", "external_urls": {"spotify": "https://open.spotify.com/artist/3nViOFa3kZW8OMSNOzwr98"}, "images": [{"width": 640, "height": 640, "url": "https://i.scdn.co/image/2062be9aadba620a85bbaac9b068b5228e5323c3"}, {"width": 320, "height": 320, "url": "https://i.scdn.co/image/266a2d034d39595acc0c5e7ff982c573cb777fb5"}, {"width": 160, "height": 160, "url": "https://i.scdn.co/image/e4b353b7e31c0f1cef8ec22392a17e7451a414bb"}], "href": "https://api.spotify.com/v1/artists/3nViOFa3kZW8OMSNOzwr98"}, {"followers": {"total": 84559, "href": null}, "popularity": 59, "name": "Queen Latifah", "genres": ["conscious hip hop", "east coast hip hop", "hip hop", "hip pop", "hollywood", "new jersey rap"], "id": "5m7wCUhYhBh7A3A3YMxrbt", "type": "artist", "uri": "spotify:artist:5m7wCUhYhBh7A3A3YMxrbt", "external_urls": {"spotify": "https://open.spotify.com/artist/5m7wCUhYhBh7A3A3YMxrbt"}, "images": [{"width": 1000, "height": 980, "url": "https://i.scdn.co/image/8f0b1267ee4a84e260991c25d136ed4be13a8cbe"}, {"width": 640, "height": 627, "url": "https://i.scdn.co/image/bd0d30004390383f4f272f4735386c851171bdb4"}, {"width": 200, "height": 196, "url": "https://i.scdn.co/image/014595f259c417b2ee3bd7164f61f21b0e4c3cd4"}, {"width": 64, "height": 63, "url": "https://i.scdn.co/image/280a4d9a38af33c661bcb1be9bbd00091850f5df"}], "href": "https://api.spotify.com/v1/artists/5m7wCUhYhBh7A3A3YMxrbt"}, {"followers": {"total": 57236, "href": null}, "popularity": 44, "name": "Queen Ifrica", "genres": ["dancehall", "lovers rock", "modern reggae", "reggae fusion", "roots reggae"], "id": "5SK75gxwqKq5Zc1mdLfwv9", "type": "artist", "uri": "spotify:artist:5SK75gxwqKq5Zc1mdLfwv9", "external_urls": {"spotify": "https://open.spotify.com/artist/5SK75gxwqKq5Zc1mdLfwv9"}, "images": [{"width": 1000, "height": 1000, "url": "https://i.scdn.co/image/d3a5325327534e042312622ea7b955ba45800260"}, {"width": 640, "height": 640, "url": "https://i.scdn.co/image/087d849a742d51b68e5bc53612a95423b16107ae"}, {"width": 200, "height": 200, "url": "https://i.scdn.co/image/597cc9337e88dffbce7c449dab2ebed8be0337a9"}, {"width": 64, "height": 64, "url": "https://i.scdn.co/image/a845be9f159f3d2b5a728ab5c58549c26ec5c361"}], "href": "https://api.spotify.com/v1/artists/5SK75gxwqKq5Zc1mdLfwv9"}, {"followers": {"total": 73, "href": null}, "popularity": 25, "name": "The Unmarried Queen", "genres": [], "id": "5kT8jMovuiNohuRVboX9yY", "type": "artist", "uri": "spotify:artist:5kT8jMovuiNohuRVboX9yY", "external_urls": {"spotify": "https://open.spotify.com/artist/5kT8jMovuiNohuRVboX9yY"}, "images": [{"width": 640, "height": 640, "url": "https://i.scdn.co/image/ab67616d0000b273f8eb1966dfe131922820e3f5"}, {"width": 300, "height": 300, "url": "https://i.scdn.co/image/ab67616d00001e02f8eb1966dfe131922820e3f5"}, {"width": 64, "height": 64, "url": "https://i.scdn.co/image/ab67616d00004851f8eb1966dfe131922820e3f5"}], "href": "https://api.spotify.com/v1/artists/5kT8jMovuiNohuRVboX9yY"}, {"followers": {"total": 851696, "href": null}, "popularity": 63, "name": "Ivy Queen", "genres": ["latin", "latin hip hop", "rap latina", "reggaeton", "reggaeton flow", "tropical"], "id": "6p2442ymrT9lZEuCZJdYcH", "type": "artist", "uri": "spotify:artist:6p2442ymrT9lZEuCZJdYcH", "external_urls": {"spotify": "https://open.spotify.com/artist/6p2442ymrT9lZEuCZJdYcH"}, "images": [{"width": 640, "height": 640, "url": "https://i.scdn.co/image/1f4c63f3cdf96a09be2a443007a648758177b727"}, {"width": 320, "height": 320, "url": "https://i.scdn.co/image/dc36bd0abfdbfeb396f4dab320c814561e2b2527"}, {"width": 160, "height": 160, "url": "https://i.scdn.co/image/1c158cc7f6cd35f2ebd56cff9722437bcf34b2ff"}], "href": "https://api.spotify.com/v1/artists/6p2442ymrT9lZEuCZJdYcH"}, {"followers": {"total": 63877, "href": null}, "popularity": 53, "name": "QUEEN BEE", "genres": ["anime rock", "j-pop", "j-rock"], "id": "6whFEcaV75AmQMiwlfaxvc", "type": "artist", "uri": "spotify:artist:6whFEcaV75AmQMiwlfaxvc", "external_urls": {"spotify": "https://open.spotify.com/artist/6whFEcaV75AmQMiwlfaxvc"}, "images": [{"width": 640, "height": 640, "url": "https://i.scdn.co/image/789d5b56ba2eff1b4bf828bb552aa205f07621b5"}, {"width": 320, "height": 320, "url": "https://i.scdn.co/image/80b5c1c7057d58facc28a430dcdc15b23e8ac78b"}, {"width": 160, "height": 160, "url": "https://i.scdn.co/image/382ceccce70ecb28be2f82c89f0ea100aa6ad521"}], "href": "https://api.spotify.com/v1/artists/6whFEcaV75AmQMiwlfaxvc"}, {"followers": {"total": 89328, "href": null}, "popularity": 51, "name": "Queen Key", "genres": ["deep pop r&b", "trap queen"], "id": "3IhYHKVt0Q9vxCCwiCHahR", "type": "artist", "uri": "spotify:artist:3IhYHKVt0Q9vxCCwiCHahR", "external_urls": {"spotify": "https://open.spotify.com/artist/3IhYHKVt0Q9vxCCwiCHahR"}, "images": [{"width": 640, "height": 640, "url": "https://i.scdn.co/image/54c91273cb532ba799971af1c616a012bb8492d7"}, {"width": 320, "height": 320, "url": "https://i.scdn.co/image/5967d152a7f5c35e77ef8fb84dee022ca1621f41"}, {"width": 160, "height": 160, "url": "https://i.scdn.co/image/23820b3548dda6924922217d8334cbcc288e48c0"}], "href": "https://api.spotify.com/v1/artists/3IhYHKVt0Q9vxCCwiCHahR"}], "limit": 10, "total": 2077, "previous": null, "next": "https://api.spotify.com/v1/search?query=queen&type=artist&market=SE&offset=10&limit=10", "offset": 0, "href": "https://api.spotify.com/v1/search?query=queen&type=artist&market=SE&offset=0&limit=10"}}